\relax 
\providecommand\hyper@newdestlabel[2]{}
\@nameuse{bbl@beforestart}
\providecommand\HyperFirstAtBeginDocument{\AtBeginDocument}
\HyperFirstAtBeginDocument{\ifx\hyper@anchor\@undefined
\global\let\oldcontentsline\contentsline
\gdef\contentsline#1#2#3#4{\oldcontentsline{#1}{#2}{#3}}
\global\let\oldnewlabel\newlabel
\gdef\newlabel#1#2{\newlabelxx{#1}#2}
\gdef\newlabelxx#1#2#3#4#5#6{\oldnewlabel{#1}{{#2}{#3}}}
\AtEndDocument{\ifx\hyper@anchor\@undefined
\let\contentsline\oldcontentsline
\let\newlabel\oldnewlabel
\fi}
\fi}
\global\let\hyper@last\relax 
\gdef\HyperFirstAtBeginDocument#1{#1}
\providecommand\HyField@AuxAddToFields[1]{}
\providecommand\HyField@AuxAddToCoFields[2]{}
\babel@aux{english}{}
\newlabel{index::doc}{{}{1}{}{section*.2}{}}
\@writefile{toc}{\contentsline {chapter}{\numberline {1}Prerequisites}{3}{chapter.1}\protected@file@percent }
\@writefile{lof}{\addvspace {10\p@ }}
\@writefile{lot}{\addvspace {10\p@ }}
\newlabel{Installation:prerequisites}{{1}{3}{Prerequisites}{chapter.1}{}}
\newlabel{Installation::doc}{{1}{3}{Prerequisites}{chapter.1}{}}
\@writefile{toc}{\contentsline {section}{\numberline {1.1}Sphinx}{3}{section.1.1}\protected@file@percent }
\newlabel{Installation:sphinx}{{1.1}{3}{Sphinx}{section.1.1}{}}
\@writefile{toc}{\contentsline {subsection}{\numberline {1.1.1}Extensions for Sphinx}{3}{subsection.1.1.1}\protected@file@percent }
\newlabel{Installation:extensions-for-sphinx}{{1.1.1}{3}{Extensions for Sphinx}{subsection.1.1.1}{}}
\@writefile{toc}{\contentsline {section}{\numberline {1.2}LaTeX}{4}{section.1.2}\protected@file@percent }
\newlabel{Installation:latex}{{1.2}{4}{LaTeX}{section.1.2}{}}
\@writefile{toc}{\contentsline {section}{\numberline {1.3}Git}{4}{section.1.3}\protected@file@percent }
\newlabel{Installation:git}{{1.3}{4}{Git}{section.1.3}{}}
\@writefile{toc}{\contentsline {section}{\numberline {1.4}VS\sphinxhyphen {}Code and useful plugins}{4}{section.1.4}\protected@file@percent }
\newlabel{Installation:vs-code-and-useful-plugins}{{1.4}{4}{VS\sphinxhyphen {}Code and useful plugins}{section.1.4}{}}
\@writefile{toc}{\contentsline {chapter}{\numberline {2}Creating a Sphinx project}{7}{chapter.2}\protected@file@percent }
\@writefile{lof}{\addvspace {10\p@ }}
\@writefile{lot}{\addvspace {10\p@ }}
\newlabel{CreatingSphinxProject:creating-a-sphinx-project}{{2}{7}{Creating a Sphinx project}{chapter.2}{}}
\newlabel{CreatingSphinxProject::doc}{{2}{7}{Creating a Sphinx project}{chapter.2}{}}
\@writefile{toc}{\contentsline {section}{\numberline {2.1}sphinx\sphinxhyphen {}quickstart}{7}{section.2.1}\protected@file@percent }
\newlabel{CreatingSphinxProject:sphinx-quickstart}{{2.1}{7}{sphinx\sphinxhyphen {}quickstart}{section.2.1}{}}
\@writefile{toc}{\contentsline {section}{\numberline {2.2}Project tree}{9}{section.2.2}\protected@file@percent }
\newlabel{CreatingSphinxProject:project-tree}{{2.2}{9}{Project tree}{section.2.2}{}}
\@writefile{toc}{\contentsline {section}{\numberline {2.3}The conf.py file}{9}{section.2.3}\protected@file@percent }
\newlabel{CreatingSphinxProject:the-conf-py-file}{{2.3}{9}{The conf.py file}{section.2.3}{}}
\@writefile{toc}{\contentsline {subsection}{\numberline {2.3.1}html\_theme}{10}{subsection.2.3.1}\protected@file@percent }
\newlabel{CreatingSphinxProject:html-theme}{{2.3.1}{10}{html\_theme}{subsection.2.3.1}{}}
\newlabel{CreatingSphinxProject:id1}{{2.3.1}{10}{html\_theme}{subsection.2.3.1}{}}
\@writefile{toc}{\contentsline {subsection}{\numberline {2.3.2}Extensions}{10}{subsection.2.3.2}\protected@file@percent }
\newlabel{CreatingSphinxProject:extensions}{{2.3.2}{10}{Extensions}{subsection.2.3.2}{}}
\newlabel{CreatingSphinxProject:id2}{{2.3.2}{10}{Extensions}{subsection.2.3.2}{}}
\@writefile{toc}{\contentsline {subsection}{\numberline {2.3.3}Autodoc configuration (optional)}{10}{subsection.2.3.3}\protected@file@percent }
\newlabel{CreatingSphinxProject:autodoc-configuration-optional}{{2.3.3}{10}{Autodoc configuration (optional)}{subsection.2.3.3}{}}
\@writefile{toc}{\contentsline {subsection}{\numberline {2.3.4}sphinx\sphinxhyphen {}apidoc and docstrings}{11}{subsection.2.3.4}\protected@file@percent }
\newlabel{CreatingSphinxProject:sphinx-apidoc-and-docstrings}{{2.3.4}{11}{sphinx\sphinxhyphen {}apidoc and docstrings}{subsection.2.3.4}{}}
\@writefile{toc}{\contentsline {section}{\numberline {2.4}Writing .rst files}{12}{section.2.4}\protected@file@percent }
\newlabel{CreatingSphinxProject:writing-rst-files}{{2.4}{12}{Writing .rst files}{section.2.4}{}}
\@writefile{toc}{\contentsline {section}{\numberline {2.5}HTML compilation}{12}{section.2.5}\protected@file@percent }
\newlabel{CreatingSphinxProject:html-compilation}{{2.5}{12}{HTML compilation}{section.2.5}{}}
\@writefile{toc}{\contentsline {section}{\numberline {2.6}LaTeX compilation}{13}{section.2.6}\protected@file@percent }
\newlabel{CreatingSphinxProject:latex-compilation}{{2.6}{13}{LaTeX compilation}{section.2.6}{}}
\@writefile{toc}{\contentsline {chapter}{\numberline {3}Flow with Git}{15}{chapter.3}\protected@file@percent }
\@writefile{lof}{\addvspace {10\p@ }}
\@writefile{lot}{\addvspace {10\p@ }}
\newlabel{flowWithGit:flow-with-git}{{3}{15}{Flow with Git}{chapter.3}{}}
\newlabel{flowWithGit::doc}{{3}{15}{Flow with Git}{chapter.3}{}}
\@writefile{toc}{\contentsline {section}{\numberline {3.1}Preparing the Sphinx project}{15}{section.3.1}\protected@file@percent }
\newlabel{flowWithGit:preparing-the-sphinx-project}{{3.1}{15}{Preparing the Sphinx project}{section.3.1}{}}
\@writefile{toc}{\contentsline {section}{\numberline {3.2}New Gitlab account (only first time)}{16}{section.3.2}\protected@file@percent }
\newlabel{flowWithGit:new-gitlab-account-only-first-time}{{3.2}{16}{New Gitlab account (only first time)}{section.3.2}{}}
\@writefile{toc}{\contentsline {section}{\numberline {3.3}Pushing an existing folder to a new Gitlab repository}{16}{section.3.3}\protected@file@percent }
\newlabel{flowWithGit:pushing-an-existing-folder-to-a-new-gitlab-repository}{{3.3}{16}{Pushing an existing folder to a new Gitlab repository}{section.3.3}{}}
\@writefile{toc}{\contentsline {section}{\numberline {3.4}Deploying the webpage with Gitlab Pages}{16}{section.3.4}\protected@file@percent }
\newlabel{flowWithGit:deploying-the-webpage-with-gitlab-pages}{{3.4}{16}{Deploying the webpage with Gitlab Pages}{section.3.4}{}}
\@writefile{toc}{\contentsline {subsection}{\numberline {3.4.1}As a separate project}{17}{subsection.3.4.1}\protected@file@percent }
\newlabel{flowWithGit:as-a-separate-project}{{3.4.1}{17}{As a separate project}{subsection.3.4.1}{}}
\@writefile{toc}{\contentsline {subsection}{\numberline {3.4.2}All in one project}{19}{subsection.3.4.2}\protected@file@percent }
\newlabel{flowWithGit:all-in-one-project}{{3.4.2}{19}{All in one project}{subsection.3.4.2}{}}
\@writefile{toc}{\contentsline {chapter}{\numberline {4}Indices and tables}{21}{chapter.4}\protected@file@percent }
\@writefile{lof}{\addvspace {10\p@ }}
\@writefile{lot}{\addvspace {10\p@ }}
\newlabel{index:indices-and-tables}{{4}{21}{Indices and tables}{chapter.4}{}}
